<?xml version="1.0" encoding="UTF-8" standalone="no"?>
<!-- Created with Inkscape (http://www.inkscape.org/) -->

<svg
   width="4.0326042mm"
   height="4.7624998mm"
   viewBox="0 0 4.0326042 4.7624998"
   version="1.1"
   id="svg7633"
   inkscape:version="1.2.2 (1:1.2.2+202212051550+b0a8486541)"
   sodipodi:docname="tif.svg"
   inkscape:export-filename="avatar_beret_transparent.png"
   inkscape:export-xdpi="409.58932"
   inkscape:export-ydpi="409.58932"
   xmlns:inkscape="http://www.inkscape.org/namespaces/inkscape"
   xmlns:sodipodi="http://sodipodi.sourceforge.net/DTD/sodipodi-0.dtd"
   xmlns="http://www.w3.org/2000/svg"
   xmlns:svg="http://www.w3.org/2000/svg">
  <sodipodi:namedview
     id="namedview7635"
     pagecolor="#505050"
     bordercolor="#eeeeee"
     borderopacity="1"
     inkscape:showpageshadow="0"
     inkscape:pageopacity="0"
     inkscape:pagecheckerboard="0"
     inkscape:deskcolor="#505050"
     inkscape:document-units="mm"
     showgrid="false"
     inkscape:zoom="4.4616364"
     inkscape:cx="5.0429927"
     inkscape:cy="43.481804"
     inkscape:window-width="1920"
     inkscape:window-height="1053"
     inkscape:window-x="0"
     inkscape:window-y="27"
     inkscape:window-maximized="1"
     inkscape:current-layer="layer1" />
  <defs
     id="defs7630" />
  <g
     inkscape:label="beret"
     inkscape:groupmode="layer"
     id="layer1"
     transform="translate(-95.864541,-138.44249)"
     style="display:inline">
    <g
       id="g4242"
       transform="matrix(0.07354098,0,0,0.07354098,83.198676,137.46126)"
       style="display:inline">
      <g
         id="g3658"
         style="display:inline"
         transform="translate(0,-7.0738141)">
        <g
           transform="translate(-3.8412323e-4,10.54749)"
           style="display:inline;fill:#ffffff;fill-opacity:1;stroke:#ffffff;stroke-width:4.93781;stroke-miterlimit:4;stroke-dasharray:none;stroke-opacity:1"
           id="g3647">
          <path
             style="display:inline;fill:#ffffff;fill-opacity:1;fill-rule:evenodd;stroke:#ffffff;stroke-width:4.93781;stroke-linecap:butt;stroke-linejoin:round;stroke-miterlimit:4;stroke-dasharray:none;stroke-opacity:1"
             d="m 188.2925,58.30263 c -3.3946,2.20416 -3.3946,11.2113 0,13.4155 3.3943,2.20416 9.9284,-4.42144 9.9284,-4.42144 V 62.7243 c 0,0 -6.5341,-6.62581 -9.9284,-4.42167 z"
             id="path3641"
             inkscape:connector-curvature="0"
             sodipodi:nodetypes="zzccz" />
          <path
             style="display:inline;fill:#ffffff;fill-opacity:1;fill-rule:evenodd;stroke:#ffffff;stroke-width:4.93781;stroke-linecap:butt;stroke-linejoin:round;stroke-miterlimit:4;stroke-dasharray:none;stroke-opacity:1"
             d="m 210.6978,58.30263 c 3.3946,2.20416 3.3946,11.2113 0,13.4155 -3.3943,2.20416 -9.9284,-4.42144 -9.9284,-4.42144 V 62.7243 c 0,0 6.5338,-6.62581 9.9284,-4.42167 z"
             id="path3643"
             inkscape:connector-curvature="0"
             sodipodi:nodetypes="zzccz" />
          <rect
             ry="2.3049097"
             y="61.391224"
             x="195.87596"
             height="7.2382441"
             width="7.2382441"
             id="rect3645"
             style="color:#000000;display:inline;overflow:visible;visibility:visible;opacity:1;fill:#ffffff;fill-opacity:1;fill-rule:nonzero;stroke:#ffffff;stroke-width:4.93781;stroke-linejoin:round;stroke-miterlimit:4;stroke-dasharray:none;stroke-opacity:1;marker:none;enable-background:accumulate" />
        </g>
        <g
           transform="translate(-3.8412323e-4,10.54749)"
           style="display:inline"
           id="g3656">
          <path
             style="display:inline;fill:#263e9b;fill-opacity:1;fill-rule:evenodd;stroke:#000000;stroke-width:1.33209;stroke-linecap:butt;stroke-linejoin:round;stroke-miterlimit:4;stroke-dasharray:none;stroke-opacity:1"
             d="m 188.2925,58.30263 c -3.3946,2.20416 -3.3946,11.2113 0,13.4155 3.3943,2.20416 9.9284,-4.42144 9.9284,-4.42144 V 62.7243 c 0,0 -6.5341,-6.62581 -9.9284,-4.42167 z"
             id="path3649"
             inkscape:connector-curvature="0"
             sodipodi:nodetypes="zzccz" />
          <path
             style="display:inline;fill:#ef201b;fill-opacity:1;fill-rule:evenodd;stroke:#000000;stroke-width:1.33209;stroke-linecap:butt;stroke-linejoin:round;stroke-miterlimit:4;stroke-dasharray:none;stroke-opacity:1"
             d="m 210.6978,58.30263 c 3.3946,2.20416 3.3946,11.2113 0,13.4155 -3.3943,2.20416 -9.9284,-4.42144 -9.9284,-4.42144 V 62.7243 c 0,0 6.5338,-6.62581 9.9284,-4.42167 z"
             id="path3651"
             inkscape:connector-curvature="0"
             sodipodi:nodetypes="zzccz" />
          <rect
             ry="2.3049097"
             y="61.391224"
             x="195.87596"
             height="7.2382441"
             width="7.2382441"
             id="rect3654"
             style="color:#000000;display:inline;overflow:visible;visibility:visible;opacity:1;fill:#ffffff;fill-opacity:1;fill-rule:nonzero;stroke:#000000;stroke-width:1.51825;stroke-linejoin:round;stroke-miterlimit:4;stroke-dasharray:none;stroke-opacity:1;marker:none;enable-background:accumulate" />
        </g>
      </g>
      <g
         transform="matrix(0.00187965,0,0,-0.00203651,181.0712,59.859106)"
         id="g3676"
         style="display:inline;fill:#000000;stroke:none">
        <path
           d="M 7350,5779 C 7005,5741 6628,5641 6277,5493 5852,5315 5445,5079 4745,4605 4569,4485 4333,4327 4220,4252 3519,3788 3025,3563 2585,3505 c -229,-30 -338,-16 -485,61 -184,96 -315,265 -365,468 -36,149 -36,376 0,517 55,214 201,398 394,498 115,59 199,82 327,88 227,11 411,-63 573,-231 52,-54 69,-66 95,-66 49,0 80,38 73,88 -12,91 -112,256 -231,380 -133,139 -285,226 -476,275 -114,29 -372,31 -500,4 C 1503,5485 1133,5236 860,4827 456,4222 413,3459 746,2791 c 255,-513 616,-857 1206,-1151 581,-289 1285,-480 2068,-559 1196,-122 2432,45 3580,484 741,284 1505,723 2124,1222 l 78,63 37,-30 c 179,-149 580,-435 816,-582 1688,-1051 3732,-1434 5625,-1053 1041,210 1862,621 2283,1145 337,419 517,901 517,1387 0,524 -202,1023 -560,1383 -227,229 -445,360 -741,445 -464,134 -846,58 -1130,-224 -114,-114 -248,-333 -249,-409 0,-33 43,-72 79,-72 25,0 46,15 109,78 140,141 293,210 482,220 420,20 764,-275 821,-703 15,-113 6,-282 -21,-395 -63,-264 -262,-468 -521,-535 -197,-51 -612,30 -994,194 -349,150 -675,349 -1540,936 -786,533 -1254,788 -1770,965 -395,134 -717,190 -1111,190 -528,0 -1029,-96 -1436,-275 -218,-96 -433,-239 -611,-405 l -87,-82 -93,88 c -364,349 -848,552 -1530,645 -174,23 -678,35 -827,18 z"
           id="path3674"
           inkscape:connector-curvature="0" />
      </g>
      <g
         id="g3770"
         style="display:inline"
         transform="translate(2072.074,784.2653)">
        <g
           transform="matrix(0.00187965,0,0,-0.00203651,-1891.0028,-724.62479)"
           id="g3664"
           style="display:inline;fill:#ffffff;fill-opacity:1;stroke:#ffffff;stroke-width:2108.35;stroke-miterlimit:4;stroke-dasharray:none;stroke-opacity:1">
          <path
             style="fill:#ffffff;fill-opacity:1;stroke:#ffffff;stroke-width:2108.35;stroke-miterlimit:4;stroke-dasharray:none;stroke-opacity:1"
             d="M 7350,5779 C 7005,5741 6628,5641 6277,5493 5852,5315 5445,5079 4745,4605 4569,4485 4333,4327 4220,4252 3519,3788 3025,3563 2585,3505 c -229,-30 -338,-16 -485,61 -184,96 -315,265 -365,468 -36,149 -36,376 0,517 55,214 201,398 394,498 115,59 199,82 327,88 227,11 411,-63 573,-231 52,-54 69,-66 95,-66 49,0 80,38 73,88 -12,91 -112,256 -231,380 -133,139 -285,226 -476,275 -114,29 -372,31 -500,4 C 1503,5485 1133,5236 860,4827 456,4222 413,3459 746,2791 c 255,-513 616,-857 1206,-1151 581,-289 1285,-480 2068,-559 1196,-122 2432,45 3580,484 741,284 1505,723 2124,1222 l 78,63 37,-30 c 179,-149 580,-435 816,-582 1688,-1051 3732,-1434 5625,-1053 1041,210 1862,621 2283,1145 337,419 517,901 517,1387 0,524 -202,1023 -560,1383 -227,229 -445,360 -741,445 -464,134 -846,58 -1130,-224 -114,-114 -248,-333 -249,-409 0,-33 43,-72 79,-72 25,0 46,15 109,78 140,141 293,210 482,220 420,20 764,-275 821,-703 15,-113 6,-282 -21,-395 -63,-264 -262,-468 -521,-535 -197,-51 -612,30 -994,194 -349,150 -675,349 -1540,936 -786,533 -1254,788 -1770,965 -395,134 -717,190 -1111,190 -528,0 -1029,-96 -1436,-275 -218,-96 -433,-239 -611,-405 l -87,-82 -93,88 c -364,349 -848,552 -1530,645 -174,23 -678,35 -827,18 z"
             id="path3662"
             inkscape:connector-curvature="0" />
        </g>
        <g
           style="display:inline;fill:#000000;stroke:none"
           id="g3680"
           transform="matrix(0.00187965,0,0,-0.00203651,-1891.0028,-724.40619)">
          <path
             inkscape:connector-curvature="0"
             id="path3678"
             d="M 7350,5779 C 7005,5741 6628,5641 6277,5493 5852,5315 5445,5079 4745,4605 4569,4485 4333,4327 4220,4252 3519,3788 3025,3563 2585,3505 c -229,-30 -338,-16 -485,61 -184,96 -315,265 -365,468 -36,149 -36,376 0,517 55,214 201,398 394,498 115,59 199,82 327,88 227,11 411,-63 573,-231 52,-54 69,-66 95,-66 49,0 80,38 73,88 -12,91 -112,256 -231,380 -133,139 -285,226 -476,275 -114,29 -372,31 -500,4 C 1503,5485 1133,5236 860,4827 456,4222 413,3459 746,2791 c 255,-513 616,-857 1206,-1151 581,-289 1285,-480 2068,-559 1196,-122 2432,45 3580,484 741,284 1505,723 2124,1222 l 78,63 37,-30 c 179,-149 580,-435 816,-582 1688,-1051 3732,-1434 5625,-1053 1041,210 1862,621 2283,1145 337,419 517,901 517,1387 0,524 -202,1023 -560,1383 -227,229 -445,360 -741,445 -464,134 -846,58 -1130,-224 -114,-114 -248,-333 -249,-409 0,-33 43,-72 79,-72 25,0 46,15 109,78 140,141 293,210 482,220 420,20 764,-275 821,-703 15,-113 6,-282 -21,-395 -63,-264 -262,-468 -521,-535 -197,-51 -612,30 -994,194 -349,150 -675,349 -1540,936 -786,533 -1254,788 -1770,965 -395,134 -717,190 -1111,190 -528,0 -1029,-96 -1436,-275 -218,-96 -433,-239 -611,-405 l -87,-82 -93,88 c -364,349 -848,552 -1530,645 -174,23 -678,35 -827,18 z" />
        </g>
      </g>
      <path
         sodipodi:nodetypes="ccccccccscccccccccccccccc"
         inkscape:connector-curvature="0"
         id="path3495-7-6-3"
         d="m 202.97411,15.737796 -2.9734,3.32181 z m -2.8339,3.48828 c -0.4951,-0.009 -0.996,-0.007 -1.5118,0.004 -1.2093,0 -4.2609,0.3379 -5.7168,0.63282 -4.3232,0.87553 -7.7927,2.27819 -11.289,4.5664 -1.6496,1.07975 -2.5788,1.80034 -3.5332,2.74219 -1.4823,1.46275 -2.2696,2.75999 -2.2696,3.73828 0,1.33402 1.5734,3.67927 3.4454,5.13477 l 0.5253,0.4082 v 1.23828 h 0.012 v 1.23828 h 19.8555 19.8555 v -1.3418 -1.34374 l 0.664,-0.50586 c 1.9352,-1.47634 3.4072,-3.74 3.2754,-5.0293 -0.053,-0.51688 -0.3931,-1.27307 -0.8769,-1.95117 -0.682,-0.95587 -2.2287,-2.45273 -3.4219,-3.3125 -2.3618,-1.61402 -4.3056,-2.77314 -6.9687,-3.86719 -2.3637,-0.94064 -4.8543,-1.60437 -7.4747,-1.99219 -1.65,-0.21689 -3.0852,-0.33302 -4.5703,-0.35937 z"
         style="display:inline;fill:#ffffff;fill-opacity:1;stroke:#ffffff;stroke-width:7.18228;stroke-linecap:square;stroke-linejoin:round;stroke-miterlimit:4;stroke-dasharray:none;stroke-opacity:1;paint-order:stroke fill markers" />
      <path
         sodipodi:nodetypes="ccccccccscccccccccccccccc"
         inkscape:connector-curvature="0"
         id="path3495-7-6"
         d="m 202.97638,15.973953 -2.9734,3.32181 z m -2.8339,3.48828 c -0.4951,-0.009 -0.996,-0.007 -1.5118,0.004 -1.2093,0 -4.2609,0.3379 -5.7168,0.63282 -4.3232,0.87553 -7.7927,2.27819 -11.289,4.5664 -1.6496,1.07975 -2.5788,1.80034 -3.5332,2.74219 -1.4823,1.46275 -2.2696,2.75999 -2.2696,3.73828 0,1.33402 1.5734,3.67927 3.4454,5.13477 l 0.5253,0.4082 v 1.23828 h 0.012 v 1.23828 h 19.8555 19.8555 v -1.3418 -1.34374 l 0.664,-0.50586 c 1.9352,-1.47634 3.4072,-3.74 3.2754,-5.0293 -0.053,-0.51688 -0.3931,-1.27307 -0.8769,-1.95117 -0.682,-0.95587 -2.2287,-2.45273 -3.4219,-3.3125 -2.3618,-1.61402 -4.3056,-2.77314 -6.9687,-3.86719 -2.3637,-0.94064 -4.8543,-1.60437 -7.4747,-1.99219 -1.65,-0.21689 -3.0852,-0.33302 -4.5703,-0.35937 z"
         style="display:inline;fill:#ffffff;fill-opacity:1;stroke:#000000;stroke-width:2.22;stroke-miterlimit:4;stroke-dasharray:none;stroke-opacity:1" />
    </g>
  </g>
</svg>
